[gd_scene load_steps=3 format=2]

[ext_resource path="res://Scripts/Slot.gd" type="Script" id=1]
[ext_resource path="res://Assets/background-slot.png" type="Texture" id=2]

[node name="Slot" type="Node2D"]

position = Vector2( 0.414871, 0 )
script = ExtResource( 1 )

[node name="Background" type="Sprite" parent="." index="0"]

texture = ExtResource( 2 )
_sections_unfolded = [ "Material", "Pause", "Region", "Transform", "Visibility", "Z Index" ]


